<svg version="1.1" xmlns="http://www.w3.org/2000/svg" width="1024" height="1024" viewBox="0 0 1024 1024">
<path d="M288.505 383.049l223.495 200.571 223.497-200.571 28.497 31.756-251.994 226.146-251.993-226.146 28.497-31.756z"></path>
</svg>
