<svg version="1.1" xmlns="http://www.w3.org/2000/svg" width="1024" height="1024" viewBox="0 0 1024 1024">
<path d="M326.157 918.985c378.016 0 584.775-313.184 584.775-584.777 0-8.895 0-17.751-0.601-26.566 40.221-29.094 74.943-65.118 102.538-106.385-37.51 16.621-77.303 27.521-118.045 32.336 42.906-25.685 75.015-66.084 90.357-113.677-40.346 23.94-84.48 40.811-130.507 49.887-63.706-67.742-164.94-84.322-246.926-40.443-81.991 43.879-124.349 137.305-103.322 227.889-165.251-8.284-319.215-86.337-423.575-214.733-54.55 93.909-26.687 214.046 63.63 274.356-32.707-0.969-64.701-9.793-93.282-25.725 0 0.841 0 1.723 0 2.605 0.027 97.834 68.99 182.1 164.886 201.471-30.258 8.25-62.005 9.456-92.801 3.526 26.925 83.723 104.084 141.076 192.013 142.728-72.777 57.197-162.68 88.247-255.243 88.153-16.352-0.031-32.689-1.024-48.925-2.965 93.989 60.314 203.349 92.307 315.027 92.16z"></path>
</svg>
