<svg version="1.1" xmlns="http://www.w3.org/2000/svg" width="1024" height="1024" viewBox="0 0 1024 1024">
<path d="M622.507 152h-221.030c-201.722 0-249.485 47.763-249.485 249.485v221.030c0 201.722 47.763 249.485 249.485 249.485h221.030c201.722 0 249.485-47.763 249.485-249.485v-221.030c0-201.722-48.272-249.485-249.485-249.485zM733.275 665.706h-52.336c-19.814 0-25.914-15.75-61.482-51.827-30.995-29.981-44.714-34.045-52.336-34.045-10.669 0-13.718 3.050-13.718 17.786v47.254c0 12.701-4.064 20.323-37.6 20.323-55.386 0-116.867-33.536-160.058-96.032-65.038-91.462-82.822-160.058-82.822-174.285 0-7.622 3.049-14.736 17.784-14.736h52.338c13.21 0 18.291 6.099 23.373 20.326 25.914 74.691 69.104 140.24 86.886 140.24 6.605 0 9.654-3.050 9.654-19.818v-77.235c-2.032-35.568-20.832-38.614-20.832-51.318 0-6.096 5.082-12.195 13.21-12.195h82.317c11.178 0 15.242 6.099 15.242 19.309v104.163c0 11.178 5.082 15.245 8.131 15.245 6.605 0 12.195-4.067 24.387-16.259 37.603-42.176 64.531-107.213 64.531-107.213 3.558-7.622 9.654-14.736 22.867-14.736h52.336c15.75 0 19.309 8.128 15.75 19.309-6.605 30.486-70.627 120.931-70.627 120.931-5.59 9.146-7.622 13.21 0 23.373 5.587 7.622 23.882 23.373 36.077 37.6 22.355 25.405 39.632 46.749 44.205 61.482 5.082 14.736-2.541 22.358-17.277 22.358z"></path>
</svg>
