<svg version="1.1" xmlns="http://www.w3.org/2000/svg" width="1024" height="1024" viewBox="0 0 1024 1024">
<path d="M903.373 182.326c43.101 11.52 77.040 45.461 88.563 88.563 20.934 78.118 20.934 241.111 20.934 241.111s0 162.99-20.934 241.116c-11.522 43.097-45.461 77.040-88.563 88.563-78.118 20.93-391.373 20.93-391.373 20.93s-313.254 0-391.373-20.93c-43.097-11.522-77.043-45.466-88.563-88.563-20.934-78.127-20.934-241.116-20.934-241.116s0-162.994 20.934-241.111c11.52-43.102 45.465-77.043 88.563-88.563 78.119-20.935 391.373-20.935 391.373-20.935s313.255 0 391.373 20.935zM671.37 512.005l-261.82-147.991v295.971l261.82-147.98z"></path>
</svg>
