<svg width="179" height="84" viewBox="0 0 179 84" fill="none" xmlns="http://www.w3.org/2000/svg">
<g clip-path="url(#clip0_67_2831)">
<path d="M78.3546 22.8241C65.6406 13.7889 52.9265 7.82899 40.2124 0.189908C39.7822 -0.065907 39.2472 -0.065907 38.817 0.189908C26.1056 7.69836 13.3916 16.8832 0.677469 22.9901C0.0241549 23.3031 -0.196305 24.1223 0.190844 24.8353C0.575305 25.5483 1.41682 25.8776 2.07282 25.5592C4.09729 24.5767 6.11906 23.5154 8.14353 22.3941C8.14353 40.1624 8.14353 57.4545 8.14353 74.273C8.14353 75.0159 8.75921 75.6337 9.51737 75.65C16.6743 75.8051 23.8284 75.6963 30.9853 75.514C31.7435 75.4949 32.3592 74.869 32.3592 74.1151C32.3592 73.3613 31.7435 72.7707 30.9853 72.798C24.2882 73.0157 17.591 73.149 10.8939 73.0048C10.8939 56.1808 10.8939 38.7908 10.8939 20.8402C20.4328 15.2966 29.9744 8.757 39.516 3.00388C49.0577 8.61821 58.5993 13.4406 68.1409 19.2645C68.1409 36.2735 68.1409 53.8458 68.1409 71.9815C62.0164 71.8482 55.8946 71.9489 49.7701 72.1339C49.012 72.1584 48.3963 72.8143 48.3963 73.6008C48.3963 74.3873 49.012 75.0105 49.7701 74.9942C56.3517 74.839 62.9332 74.7574 69.5147 74.9016C70.2729 74.918 70.8886 74.2893 70.8886 73.4946C70.8886 55.5141 70.8886 38.0098 70.8886 20.9817C72.913 22.2717 74.9348 23.6215 76.9593 25.0503C77.1771 25.2054 77.419 25.2952 77.6556 25.3224C78.1261 25.3796 78.5859 25.1945 78.8413 24.7863C79.2257 24.1767 79.0079 23.2922 78.3546 22.8241Z" fill="#179296"/>
<path d="M55.0881 45.6057C55.0881 34.1239 49.5578 24.0056 40.2958 18.0702C39.8253 17.7681 39.2015 17.798 38.731 18.1545C29.469 25.184 23.9387 36.3964 23.9387 47.6767C23.9387 58.7829 29.2351 68.5937 38.1369 74.785C38.1369 77.3976 38.1369 80.0074 38.1369 82.6173C38.1369 83.382 38.7526 83.9998 39.5107 84.0025C40.2689 84.0025 40.8846 83.3766 40.8846 82.6037C40.8846 79.9693 40.8846 77.335 40.8846 74.7006C49.7944 67.8535 55.0881 56.7691 55.0881 45.6057ZM40.8899 71.1736C40.8899 65.4695 40.8899 59.7708 40.8899 54.0775C43.6376 51.5194 46.3826 48.9449 49.1303 46.4031C49.668 45.8234 49.668 44.9389 49.1303 44.43C48.5926 43.9211 47.7242 43.9783 47.1865 44.5607C45.0894 46.4113 42.9897 48.2782 40.8926 50.1369C40.8926 42.1767 40.8926 34.2274 40.8926 26.2889C40.8926 25.5215 40.277 24.9418 39.5188 24.9908C38.7606 25.0398 38.1449 25.7065 38.1449 26.4767C38.1449 34.4451 38.1449 42.3998 38.1449 50.3465C36.0479 48.3843 33.9481 46.4303 31.8511 44.4573C31.3134 43.9538 30.445 44.0109 29.9073 44.5906C29.3696 45.1676 29.3696 46.0466 29.9073 46.5528C32.6523 49.1463 35.4 51.7017 38.1449 54.2762C38.1449 59.9504 38.1449 65.6219 38.1449 71.2825C30.9316 65.5811 26.6945 57.0657 26.6945 47.5434C26.6945 37.474 31.4693 27.4755 39.5188 20.9658C47.5683 26.4685 52.3431 35.52 52.3431 45.7363C52.3404 55.3185 48.1033 64.8082 40.8899 71.1736Z" fill="#7CC89A"/>
<path d="M85.4497 27.982C85.4497 27.4676 85.8987 27.073 86.4848 27.073H90.4504C94.174 27.073 95.6204 29.1005 95.6204 32.2192V34.5189C95.6204 37.9098 93.8971 39.5454 90.0364 39.5454H87.3828C87.1757 39.5454 87.0386 39.6651 87.0386 39.8474V47.5682C87.0386 47.9628 86.6945 48.2649 86.2455 48.2649C85.7965 48.2649 85.4524 47.9628 85.4524 47.5682V27.982H85.4497ZM87.0359 37.9751C87.0359 38.1574 87.1731 38.2772 87.3801 38.2772H90.0337C92.8271 38.2772 94.0315 37.1859 94.0315 34.6141V32.1322C94.0315 29.8298 93.1685 28.3466 90.445 28.3466H87.3774C87.1704 28.3466 87.0333 28.4664 87.0333 28.6487V37.9751H87.0359Z" fill="#179296"/>
<path d="M98.8573 27.0757C99.3063 27.0757 99.6504 27.3778 99.6504 27.7724V47.5736C99.6504 47.9682 99.3063 48.2703 98.8573 48.2703C98.4083 48.2703 98.0642 47.9682 98.0642 47.5736V27.7724C98.0642 27.3778 98.411 27.0757 98.8573 27.0757Z" fill="#179296"/>
<path d="M107.372 48.2676C106.923 48.2676 106.579 47.9655 106.579 47.5709V28.7984C106.579 28.5562 106.337 28.3439 106.063 28.3439H102.374C101.96 28.3439 101.651 28.0718 101.651 27.7071C101.651 27.3452 101.96 27.0703 102.374 27.0703H112.338C112.752 27.0703 113.061 27.3425 113.061 27.7071C113.061 28.0718 112.752 28.3439 112.338 28.3439H108.684C108.407 28.3439 108.168 28.5562 108.168 28.7984V47.5709C108.165 47.9655 107.821 48.2676 107.372 48.2676Z" fill="#179296"/>
<path d="M115.023 43.0913V32.2518C115.023 30.7088 115.437 29.3753 116.298 28.4064C117.126 27.4675 118.47 26.8933 120.296 26.8933C122.124 26.8933 123.5 27.4675 124.363 28.4064C125.226 29.3753 125.638 30.7088 125.638 32.2518V43.0913C125.638 44.6344 125.224 45.9679 124.363 46.9068C123.5 47.8756 122.124 48.4498 120.296 48.4498C118.467 48.4498 117.123 47.8756 116.298 46.9068C115.437 45.9679 115.023 44.6344 115.023 43.0913ZM116.61 32.162V43.1838C116.61 45.4835 117.645 47.1789 120.298 47.1789C122.952 47.1789 124.057 45.4835 124.057 43.1838V32.162C124.057 29.8624 122.955 28.1669 120.298 28.1669C117.645 28.1642 116.61 29.8597 116.61 32.162Z" fill="#179296"/>
<path d="M141.395 29.4352L136.535 47.5709C136.432 47.9655 136.018 48.2376 135.569 48.2376C135.088 48.2376 134.706 47.9655 134.604 47.5709L129.673 29.4951V47.6308C129.673 47.9927 129.364 48.2676 128.985 48.2676C128.571 48.2676 128.262 47.9954 128.262 47.6308V28.1942C128.262 27.5574 128.813 27.073 129.536 27.073C130.122 27.073 130.639 27.4349 130.778 27.9194L135.432 45.176C135.467 45.3584 135.741 45.3584 135.776 45.176L140.395 27.9194C140.532 27.4349 141.051 27.073 141.637 27.073C142.361 27.073 142.912 27.5574 142.912 28.1942V47.6008C142.912 47.9655 142.568 48.2676 142.154 48.2676C141.74 48.2676 141.395 47.9655 141.395 47.6008V29.4352Z" fill="#179296"/>
<path d="M147.117 29.3753V47.6334C147.117 47.9954 146.807 48.2703 146.393 48.2703C145.979 48.2703 145.67 47.9981 145.67 47.6334V28.1343C145.67 27.5601 146.221 27.0757 146.877 27.0757C147.394 27.0757 147.842 27.3478 148.015 27.7724L154.978 44.9692V27.7125C154.978 27.3506 155.287 27.0757 155.701 27.0757C156.115 27.0757 156.424 27.3478 156.424 27.7125V47.3613C156.424 47.8757 155.975 48.2703 155.389 48.2703C154.94 48.2703 154.561 48.0281 154.424 47.6661L147.117 29.3753Z" fill="#179296"/>
<path d="M159.938 27.0757C160.387 27.0757 160.732 27.3778 160.732 27.7724V47.5736C160.732 47.9682 160.387 48.2703 159.938 48.2703C159.489 48.2703 159.145 47.9682 159.145 47.5736V27.7724C159.145 27.3778 159.492 27.0757 159.938 27.0757Z" fill="#179296"/>
<path d="M173.177 47.9655L166.971 38.6391C166.869 38.4867 166.592 38.4867 166.487 38.6391L165.245 40.3945C165.143 40.5142 165.073 40.6965 165.073 40.8789V47.5709C165.073 47.9655 164.729 48.2676 164.28 48.2676C163.831 48.2676 163.487 47.9655 163.487 47.5709V27.7697C163.487 27.3751 163.831 27.073 164.28 27.073C164.729 27.073 165.073 27.3751 165.073 27.7697V37.4281C165.073 37.8826 165.315 37.9424 165.589 37.5478L172.725 27.3751C172.862 27.1927 173.069 27.073 173.311 27.073C173.862 27.073 174.206 27.6173 173.932 28.0119L167.899 36.6416C167.762 36.8239 167.762 37.0661 167.899 37.2457L174.413 47.3287C174.655 47.6906 174.483 48.2676 173.792 48.2676C173.556 48.2676 173.314 48.1478 173.177 47.9655Z" fill="#179296"/>
<path d="M178.207 27.0757C178.656 27.0757 179 27.3778 179 27.7724V47.5736C179 47.9682 178.656 48.2703 178.207 48.2703C177.758 48.2703 177.414 47.9682 177.414 47.5736V27.7724C177.414 27.3778 177.761 27.0757 178.207 27.0757Z" fill="#179296"/>
<path d="M90.4826 54.2139C92.3109 54.2139 93.5852 54.7582 94.4133 55.6971C95.2414 56.6659 95.6205 57.9667 95.6205 59.5125V59.5724C95.6205 59.9343 95.2763 60.2391 94.8623 60.2391C94.4482 60.2391 94.1041 59.9371 94.1041 59.5724V59.42C94.1041 58.2987 93.8622 57.3299 93.311 56.6033C92.7249 55.9066 91.7947 55.4821 90.5176 55.4821C87.899 55.4821 86.9311 57.1176 86.9311 59.3873C86.9311 61.1127 87.8963 62.2639 89.2056 63.2327C89.8616 63.7471 90.5499 64.2015 91.308 64.656C92.7894 65.565 94.1686 66.6236 95.0317 67.9871C95.4457 68.6838 95.6527 69.5002 95.6527 70.469C95.6527 72.0121 95.2736 73.3156 94.4456 74.2545C93.5825 75.2234 92.2732 75.7677 90.4477 75.7677C88.6195 75.7677 87.3102 75.2234 86.4821 74.2545C85.6191 73.3156 85.24 72.0148 85.24 70.469V70.0445C85.24 69.6825 85.5841 69.3777 85.9982 69.3777C86.4122 69.3777 86.7563 69.6798 86.7563 70.0445V70.5588C86.7563 72.8285 87.7565 74.4641 90.4101 74.4641C93.0637 74.4641 94.0638 72.8285 94.0638 70.5588C94.0638 68.8634 93.1336 67.7122 91.8242 66.7134C91.1682 66.229 90.445 65.7745 89.7218 65.3201C88.2055 64.441 86.8262 63.3824 85.9982 61.989C85.5492 61.2923 85.3422 60.4759 85.3422 59.4771C85.3448 56.3039 86.8961 54.2438 90.4826 54.2139Z" fill="#179296"/>
<path d="M106.786 65.6276H100.304C100.027 65.6276 99.7876 65.8399 99.7876 66.0821V74.8941C99.7876 75.2887 99.4435 75.5908 98.9945 75.5908C98.5455 75.5908 98.2014 75.2887 98.2014 74.8941V55.0929C98.2014 54.6983 98.5455 54.3962 98.9945 54.3962C99.4435 54.3962 99.7876 54.6983 99.7876 55.0929V63.905C99.7876 64.1472 100.03 64.3594 100.304 64.3594H106.786C107.063 64.3594 107.302 64.1472 107.302 63.905V55.0929C107.302 54.6983 107.646 54.3962 108.095 54.3962H108.13C108.579 54.3962 108.923 54.6983 108.923 55.0929V74.8941C108.923 75.2887 108.579 75.5908 108.13 75.5908H108.095C107.646 75.5908 107.302 75.2887 107.302 74.8941V66.0821C107.305 65.8399 107.063 65.6276 106.786 65.6276Z" fill="#179296"/>
<path d="M111.577 70.4119V59.5724C111.577 58.0293 111.991 56.6958 112.851 55.727C113.679 54.7881 115.024 54.2139 116.849 54.2139C118.677 54.2139 120.054 54.7881 120.917 55.727C121.78 56.6958 122.191 58.0293 122.191 59.5724V70.4119C122.191 71.9549 121.777 73.2884 120.917 74.2273C120.054 75.1962 118.677 75.7704 116.849 75.7704C115.021 75.7704 113.677 75.1962 112.851 74.2273C111.991 73.2884 111.577 71.9549 111.577 70.4119ZM113.163 59.4826V70.5044C113.163 72.804 114.198 74.4995 116.852 74.4995C119.505 74.4995 120.61 72.804 120.61 70.5044V59.4826C120.61 57.183 119.508 55.4875 116.852 55.4875C114.198 55.4848 113.163 57.1802 113.163 59.4826Z" fill="#179296"/>
<path d="M124.815 55.3025C124.815 54.7882 125.264 54.3936 125.85 54.3936H129.816C133.539 54.3936 134.986 56.421 134.986 59.5398V61.8394C134.986 65.2303 133.263 66.8659 129.402 66.8659H126.748C126.541 66.8659 126.404 66.9857 126.404 67.168V74.8887C126.404 75.2833 126.06 75.5854 125.611 75.5854C125.162 75.5854 124.818 75.2833 124.818 74.8887V55.3025H124.815ZM126.399 65.2956C126.399 65.478 126.536 65.5977 126.743 65.5977H129.396C132.19 65.5977 133.394 64.5064 133.394 61.9347V59.4527C133.394 57.1504 132.531 55.6672 129.808 55.6672H126.74C126.533 55.6672 126.396 55.7869 126.396 55.9693V65.2956H126.399Z" fill="#179296"/>
<path d="M135.432 72.9238H135.467C135.881 72.9238 136.225 73.2259 136.225 73.5906V74.8914C136.225 75.286 135.881 75.5881 135.467 75.5881H135.432C135.018 75.5881 134.674 75.286 134.674 74.8914V73.5906C134.674 73.2286 135.018 72.9238 135.432 72.9238Z" fill="#179296"/>
<path d="M138.981 55.3025C138.981 54.7882 139.43 54.3936 140.016 54.3936H144.014C147.703 54.3936 149.184 56.1788 149.184 59.1779V61.0257C149.184 63.4777 148.012 64.9609 145.703 65.4154C148.184 65.8998 149.184 67.4456 149.184 69.7452V73.0463C149.184 73.5906 149.219 74.1975 149.356 74.7418C149.493 75.1663 149.114 75.5882 148.598 75.5882C148.289 75.5882 147.977 75.4058 147.875 75.1337C147.668 74.5894 147.598 73.9526 147.598 73.0436V69.7126C147.598 68.2892 147.184 67.3803 146.391 66.836C145.563 66.2917 144.46 66.1094 143.081 66.1094H141.081C140.804 66.1094 140.565 66.3216 140.565 66.5638V74.8915C140.565 75.2861 140.221 75.5882 139.772 75.5882C139.323 75.5882 138.979 75.2861 138.979 74.8915V55.3025H138.981ZM140.567 64.3867C140.567 64.6289 140.809 64.8412 141.084 64.8412H143.119C144.533 64.8412 145.67 64.6588 146.428 64.1445C147.187 63.6301 147.601 62.7212 147.601 61.2979V59.3003C147.601 57.0007 146.601 55.6672 143.982 55.6672H140.914C140.707 55.6672 140.57 55.7869 140.57 55.9693V64.3867H140.567Z" fill="#179296"/>
<path d="M153.01 54.3962C153.459 54.3962 153.803 54.6983 153.803 55.0929V70.4745C153.803 71.5957 154.045 72.6245 154.631 73.3511C155.182 74.0777 156.078 74.5023 157.425 74.5023C158.769 74.5023 159.664 74.0777 160.25 73.3511C160.801 72.6245 161.043 71.5957 161.043 70.4745V55.0331C161.043 54.701 161.387 54.3962 161.801 54.3962C162.181 54.3962 162.525 54.6983 162.525 55.0331V70.4146C162.525 71.9577 162.181 73.2613 161.352 74.2301C160.524 75.1989 159.215 75.7732 157.387 75.7732C155.559 75.7732 154.249 75.1989 153.421 74.2301C152.593 73.2613 152.214 71.9604 152.214 70.4146V55.0956C152.219 54.6983 152.564 54.3962 153.01 54.3962Z" fill="#179296"/>
</g>
<defs>
<clipPath id="clip0_67_2831">
<rect width="179" height="84" fill="white"/>
</clipPath>
</defs>
</svg>
