<svg width="16" height="16" viewBox="0 0 16 16" fill="none" xmlns="http://www.w3.org/2000/svg">
<g clip-path="url(#clip0_152_205)">
<path d="M0 0L16 16M0 16L16 0" stroke="#304050" stroke-width="1.5"/>
</g>
<defs>
<clipPath id="clip0_152_205">
<rect width="16" height="16" fill="white"/>
</clipPath>
</defs>
</svg>
