{
    "cart": "\\f101",
    "chevron-down-small": "\\f102",
    "chevron-down": "\\f103",
    "close": "\\f104",
    "fb": "\\f105",
    "inst": "\\f106",
    "ok": "\\f107",
    "play": "\\f108",
    "search": "\\f109",
    "swiper-arrow": "\\f10a",
    "twitter": "\\f10b",
    "vk": "\\f10c",
    "yt": "\\f10d"
}